{
    "page": 1,
    "per_page": 15,
    "photos": [
        {
            "id": 982021,
            "width": 5472,
            "height": 3648,
            "url": "https://www.pexels.com/photo/black-elephant-near-trees-982021/",
            "photographer": "Venkat Ragavan",
            "photographer_url": "https://www.pexels.com/@venkat-ragavan-363659",
            "photographer_id": 363659,
            "avg_color": "#7B9967",
            "src": {
                "original": "https://images.pexels.com/photos/982021/pexels-photo-982021.jpeg",
                "large2x": "https://images.pexels.com/photos/982021/pexels-photo-982021.jpeg?auto=compress&cs=tinysrgb&dpr=2&h=650&w=940",
                "large": "https://images.pexels.com/photos/982021/pexels-photo-982021.jpeg?auto=compress&cs=tinysrgb&h=650&w=940",
                "medium": "https://images.pexels.com/photos/982021/pexels-photo-982021.jpeg?auto=compress&cs=tinysrgb&h=350",
                "small": "https://images.pexels.com/photos/982021/pexels-photo-982021.jpeg?auto=compress&cs=tinysrgb&h=130",
                "portrait": "https://images.pexels.com/photos/982021/pexels-photo-982021.jpeg?auto=compress&cs=tinysrgb&fit=crop&h=1200&w=800",
                "landscape": "https://images.pexels.com/photos/982021/pexels-photo-982021.jpeg?auto=compress&cs=tinysrgb&fit=crop&h=627&w=1200",
                "tiny": "https://images.pexels.com/photos/982021/pexels-photo-982021.jpeg?auto=compress&cs=tinysrgb&dpr=1&fit=crop&h=200&w=280"
            },
            "liked": false,
            "alt": "Black Elephant Near Trees"
        },
        {
            "id": 3739327,
            "width": 2783,
            "height": 4947,
            "url": "https://www.pexels.com/photo/gray-elephant-walking-on-brown-grass-field-3739327/",
            "photographer": "FUTURE KIIID",
            "photographer_url": "https://www.pexels.com/@futurekiiid",
            "photographer_id": 466989,
            "avg_color": "#736965",
            "src": {
                "original": "https://images.pexels.com/photos/3739327/pexels-photo-3739327.jpeg",
                "large2x": "https://images.pexels.com/photos/3739327/pexels-photo-3739327.jpeg?auto=compress&cs=tinysrgb&dpr=2&h=650&w=940",
                "large": "https://images.pexels.com/photos/3739327/pexels-photo-3739327.jpeg?auto=compress&cs=tinysrgb&h=650&w=940",
                "medium": "https://images.pexels.com/photos/3739327/pexels-photo-3739327.jpeg?auto=compress&cs=tinysrgb&h=350",
                "small": "https://images.pexels.com/photos/3739327/pexels-photo-3739327.jpeg?auto=compress&cs=tinysrgb&h=130",
                "portrait": "https://images.pexels.com/photos/3739327/pexels-photo-3739327.jpeg?auto=compress&cs=tinysrgb&fit=crop&h=1200&w=800",
                "landscape": "https://images.pexels.com/photos/3739327/pexels-photo-3739327.jpeg?auto=compress&cs=tinysrgb&fit=crop&h=627&w=1200",
                "tiny": "https://images.pexels.com/photos/3739327/pexels-photo-3739327.jpeg?auto=compress&cs=tinysrgb&dpr=1&fit=crop&h=200&w=280"
            },
            "liked": false,
            "alt": "Gray Elephant Walking on Brown Grass Field"
        },
        {
            "id": 16066,
            "width": 5184,
            "height": 3456,
            "url": "https://www.pexels.com/photo/two-gray-elephants-16066/",
            "photographer": "Casey Allen",
            "photographer_url": "https://www.pexels.com/@caseygeneallen",
            "photographer_id": 1207,
            "avg_color": "#6F6D6D",
            "src": {
                "original": "https://images.pexels.com/photos/16066/pexels-photo.jpg",
                "large2x": "https://images.pexels.com/photos/16066/pexels-photo.jpg?auto=compress&cs=tinysrgb&dpr=2&h=650&w=940",
                "large": "https://images.pexels.com/photos/16066/pexels-photo.jpg?auto=compress&cs=tinysrgb&h=650&w=940",
                "medium": "https://images.pexels.com/photos/16066/pexels-photo.jpg?auto=compress&cs=tinysrgb&h=350",
                "small": "https://images.pexels.com/photos/16066/pexels-photo.jpg?auto=compress&cs=tinysrgb&h=130",
                "portrait": "https://images.pexels.com/photos/16066/pexels-photo.jpg?auto=compress&cs=tinysrgb&fit=crop&h=1200&w=800",
                "landscape": "https://images.pexels.com/photos/16066/pexels-photo.jpg?auto=compress&cs=tinysrgb&fit=crop&h=627&w=1200",
                "tiny": "https://images.pexels.com/photos/16066/pexels-photo.jpg?auto=compress&cs=tinysrgb&dpr=1&fit=crop&h=200&w=280"
            },
            "liked": false,
            "alt": "Two Gray Elephants"
        },
        {
            "id": 3565117,
            "width": 1962,
            "height": 2874,
            "url": "https://www.pexels.com/photo/grayscale-photo-of-elephant-3565117/",
            "photographer": "FUTURE KIIID",
            "photographer_url": "https://www.pexels.com/@futurekiiid",
            "photographer_id": 466989,
            "avg_color": "#5B5B5B",
            "src": {
                "original": "https://images.pexels.com/photos/3565117/pexels-photo-3565117.jpeg",
                "large2x": "https://images.pexels.com/photos/3565117/pexels-photo-3565117.jpeg?auto=compress&cs=tinysrgb&dpr=2&h=650&w=940",
                "large": "https://images.pexels.com/photos/3565117/pexels-photo-3565117.jpeg?auto=compress&cs=tinysrgb&h=650&w=940",
                "medium": "https://images.pexels.com/photos/3565117/pexels-photo-3565117.jpeg?auto=compress&cs=tinysrgb&h=350",
                "small": "https://images.pexels.com/photos/3565117/pexels-photo-3565117.jpeg?auto=compress&cs=tinysrgb&h=130",
                "portrait": "https://images.pexels.com/photos/3565117/pexels-photo-3565117.jpeg?auto=compress&cs=tinysrgb&fit=crop&h=1200&w=800",
                "landscape": "https://images.pexels.com/photos/3565117/pexels-photo-3565117.jpeg?auto=compress&cs=tinysrgb&fit=crop&h=627&w=1200",
                "tiny": "https://images.pexels.com/photos/3565117/pexels-photo-3565117.jpeg?auto=compress&cs=tinysrgb&dpr=1&fit=crop&h=200&w=280"
            },
            "liked": false,
            "alt": "Grayscale Photo of Elephant"
        },
        {
            "id": 4577791,
            "width": 1728,
            "height": 2592,
            "url": "https://www.pexels.com/photo/huge-elephant-with-long-trunk-standing-on-green-meadow-4577791/",
            "photographer": "Rachel Claire",
            "photographer_url": "https://www.pexels.com/@rachel-claire",
            "photographer_id": 2272619,
            "avg_color": "#989287",
            "src": {
                "original": "https://images.pexels.com/photos/4577791/pexels-photo-4577791.jpeg",
                "large2x": "https://images.pexels.com/photos/4577791/pexels-photo-4577791.jpeg?auto=compress&cs=tinysrgb&dpr=2&h=650&w=940",
                "large": "https://images.pexels.com/photos/4577791/pexels-photo-4577791.jpeg?auto=compress&cs=tinysrgb&h=650&w=940",
                "medium": "https://images.pexels.com/photos/4577791/pexels-photo-4577791.jpeg?auto=compress&cs=tinysrgb&h=350",
                "small": "https://images.pexels.com/photos/4577791/pexels-photo-4577791.jpeg?auto=compress&cs=tinysrgb&h=130",
                "portrait": "https://images.pexels.com/photos/4577791/pexels-photo-4577791.jpeg?auto=compress&cs=tinysrgb&fit=crop&h=1200&w=800",
                "landscape": "https://images.pexels.com/photos/4577791/pexels-photo-4577791.jpeg?auto=compress&cs=tinysrgb&fit=crop&h=627&w=1200",
                "tiny": "https://images.pexels.com/photos/4577791/pexels-photo-4577791.jpeg?auto=compress&cs=tinysrgb&dpr=1&fit=crop&h=200&w=280"
            },
            "liked": false,
            "alt": "Huge elephant with long trunk standing on green meadow"
        },
        {
            "id": 1054672,
            "width": 3447,
            "height": 2736,
            "url": "https://www.pexels.com/photo/photo-of-elephant-1054672/",
            "photographer": "Harvey Sapir",
            "photographer_url": "https://www.pexels.com/@hsapir",
            "photographer_id": 396264,
            "avg_color": "#686359",
            "src": {
                "original": "https://images.pexels.com/photos/1054672/pexels-photo-1054672.jpeg",
                "large2x": "https://images.pexels.com/photos/1054672/pexels-photo-1054672.jpeg?auto=compress&cs=tinysrgb&dpr=2&h=650&w=940",
                "large": "https://images.pexels.com/photos/1054672/pexels-photo-1054672.jpeg?auto=compress&cs=tinysrgb&h=650&w=940",
                "medium": "https://images.pexels.com/photos/1054672/pexels-photo-1054672.jpeg?auto=compress&cs=tinysrgb&h=350",
                "small": "https://images.pexels.com/photos/1054672/pexels-photo-1054672.jpeg?auto=compress&cs=tinysrgb&h=130",
                "portrait": "https://images.pexels.com/photos/1054672/pexels-photo-1054672.jpeg?auto=compress&cs=tinysrgb&fit=crop&h=1200&w=800",
                "landscape": "https://images.pexels.com/photos/1054672/pexels-photo-1054672.jpeg?auto=compress&cs=tinysrgb&fit=crop&h=627&w=1200",
                "tiny": "https://images.pexels.com/photos/1054672/pexels-photo-1054672.jpeg?auto=compress&cs=tinysrgb&dpr=1&fit=crop&h=200&w=280"
            },
            "liked": false,
            "alt": "Photo of Elephant"
        },
        {
            "id": 6551925,
            "width": 1848,
            "height": 2768,
            "url": "https://www.pexels.com/photo/an-elephant-on-the-field-6551925/",
            "photographer": "Taryn Elliott",
            "photographer_url": "https://www.pexels.com/@taryn-elliott",
            "photographer_id": 1522664,
            "avg_color": "#9D9080",
            "src": {
                "original": "https://images.pexels.com/photos/6551925/pexels-photo-6551925.jpeg",
                "large2x": "https://images.pexels.com/photos/6551925/pexels-photo-6551925.jpeg?auto=compress&cs=tinysrgb&dpr=2&h=650&w=940",
                "large": "https://images.pexels.com/photos/6551925/pexels-photo-6551925.jpeg?auto=compress&cs=tinysrgb&h=650&w=940",
                "medium": "https://images.pexels.com/photos/6551925/pexels-photo-6551925.jpeg?auto=compress&cs=tinysrgb&h=350",
                "small": "https://images.pexels.com/photos/6551925/pexels-photo-6551925.jpeg?auto=compress&cs=tinysrgb&h=130",
                "portrait": "https://images.pexels.com/photos/6551925/pexels-photo-6551925.jpeg?auto=compress&cs=tinysrgb&fit=crop&h=1200&w=800",
                "landscape": "https://images.pexels.com/photos/6551925/pexels-photo-6551925.jpeg?auto=compress&cs=tinysrgb&fit=crop&h=627&w=1200",
                "tiny": "https://images.pexels.com/photos/6551925/pexels-photo-6551925.jpeg?auto=compress&cs=tinysrgb&dpr=1&fit=crop&h=200&w=280"
            },
            "liked": false,
            "alt": "An Elephant on the Field"
        },
        {
            "id": 4577793,
            "width": 1836,
            "height": 2592,
            "url": "https://www.pexels.com/photo/adult-elephant-standing-above-baby-elephant-on-pasture-4577793/",
            "photographer": "Rachel Claire",
            "photographer_url": "https://www.pexels.com/@rachel-claire",
            "photographer_id": 2272619,
            "avg_color": "#BFBBB5",
            "src": {
                "original": "https://images.pexels.com/photos/4577793/pexels-photo-4577793.jpeg",
                "large2x": "https://images.pexels.com/photos/4577793/pexels-photo-4577793.jpeg?auto=compress&cs=tinysrgb&dpr=2&h=650&w=940",
                "large": "https://images.pexels.com/photos/4577793/pexels-photo-4577793.jpeg?auto=compress&cs=tinysrgb&h=650&w=940",
                "medium": "https://images.pexels.com/photos/4577793/pexels-photo-4577793.jpeg?auto=compress&cs=tinysrgb&h=350",
                "small": "https://images.pexels.com/photos/4577793/pexels-photo-4577793.jpeg?auto=compress&cs=tinysrgb&h=130",
                "portrait": "https://images.pexels.com/photos/4577793/pexels-photo-4577793.jpeg?auto=compress&cs=tinysrgb&fit=crop&h=1200&w=800",
                "landscape": "https://images.pexels.com/photos/4577793/pexels-photo-4577793.jpeg?auto=compress&cs=tinysrgb&fit=crop&h=627&w=1200",
                "tiny": "https://images.pexels.com/photos/4577793/pexels-photo-4577793.jpeg?auto=compress&cs=tinysrgb&dpr=1&fit=crop&h=200&w=280"
            },
            "liked": false,
            "alt": "Adult elephant standing above baby elephant on pasture"
        },
        {
            "id": 1907075,
            "width": 3840,
            "height": 5760,
            "url": "https://www.pexels.com/photo/photo-of-elephant-splashing-water-1907075/",
            "photographer": "Elina Sazonova",
            "photographer_url": "https://www.pexels.com/@elina-sazonova",
            "photographer_id": 912559,
            "avg_color": "#928474",
            "src": {
                "original": "https://images.pexels.com/photos/1907075/pexels-photo-1907075.jpeg",
                "large2x": "https://images.pexels.com/photos/1907075/pexels-photo-1907075.jpeg?auto=compress&cs=tinysrgb&dpr=2&h=650&w=940",
                "large": "https://images.pexels.com/photos/1907075/pexels-photo-1907075.jpeg?auto=compress&cs=tinysrgb&h=650&w=940",
                "medium": "https://images.pexels.com/photos/1907075/pexels-photo-1907075.jpeg?auto=compress&cs=tinysrgb&h=350",
                "small": "https://images.pexels.com/photos/1907075/pexels-photo-1907075.jpeg?auto=compress&cs=tinysrgb&h=130",
                "portrait": "https://images.pexels.com/photos/1907075/pexels-photo-1907075.jpeg?auto=compress&cs=tinysrgb&fit=crop&h=1200&w=800",
                "landscape": "https://images.pexels.com/photos/1907075/pexels-photo-1907075.jpeg?auto=compress&cs=tinysrgb&fit=crop&h=627&w=1200",
                "tiny": "https://images.pexels.com/photos/1907075/pexels-photo-1907075.jpeg?auto=compress&cs=tinysrgb&dpr=1&fit=crop&h=200&w=280"
            },
            "liked": false,
            "alt": "Photo of Elephant Splashing Water"
        },
        {
            "id": 3669406,
            "width": 6016,
            "height": 4000,
            "url": "https://www.pexels.com/photo/close-up-photo-of-elephants-eye-3669406/",
            "photographer": "Abhas Jaiswal",
            "photographer_url": "https://www.pexels.com/@abhas-jaiswal-2013681",
            "photographer_id": 2013681,
            "avg_color": "#7E796F",
            "src": {
                "original": "https://images.pexels.com/photos/3669406/pexels-photo-3669406.jpeg",
                "large2x": "https://images.pexels.com/photos/3669406/pexels-photo-3669406.jpeg?auto=compress&cs=tinysrgb&dpr=2&h=650&w=940",
                "large": "https://images.pexels.com/photos/3669406/pexels-photo-3669406.jpeg?auto=compress&cs=tinysrgb&h=650&w=940",
                "medium": "https://images.pexels.com/photos/3669406/pexels-photo-3669406.jpeg?auto=compress&cs=tinysrgb&h=350",
                "small": "https://images.pexels.com/photos/3669406/pexels-photo-3669406.jpeg?auto=compress&cs=tinysrgb&h=130",
                "portrait": "https://images.pexels.com/photos/3669406/pexels-photo-3669406.jpeg?auto=compress&cs=tinysrgb&fit=crop&h=1200&w=800",
                "landscape": "https://images.pexels.com/photos/3669406/pexels-photo-3669406.jpeg?auto=compress&cs=tinysrgb&fit=crop&h=627&w=1200",
                "tiny": "https://images.pexels.com/photos/3669406/pexels-photo-3669406.jpeg?auto=compress&cs=tinysrgb&dpr=1&fit=crop&h=200&w=280"
            },
            "liked": false,
            "alt": "Close Up Photo of Elephants Eye"
        },
        {
            "id": 3691279,
            "width": 3343,
            "height": 4457,
            "url": "https://www.pexels.com/photo/black-elephant-on-sand-behind-trees-3691279/",
            "photographer": "Katie Hollamby",
            "photographer_url": "https://www.pexels.com/@qwertypr",
            "photographer_id": 1908980,
            "avg_color": "#8F7C58",
            "src": {
                "original": "https://images.pexels.com/photos/3691279/pexels-photo-3691279.jpeg",
                "large2x": "https://images.pexels.com/photos/3691279/pexels-photo-3691279.jpeg?auto=compress&cs=tinysrgb&dpr=2&h=650&w=940",
                "large": "https://images.pexels.com/photos/3691279/pexels-photo-3691279.jpeg?auto=compress&cs=tinysrgb&h=650&w=940",
                "medium": "https://images.pexels.com/photos/3691279/pexels-photo-3691279.jpeg?auto=compress&cs=tinysrgb&h=350",
                "small": "https://images.pexels.com/photos/3691279/pexels-photo-3691279.jpeg?auto=compress&cs=tinysrgb&h=130",
                "portrait": "https://images.pexels.com/photos/3691279/pexels-photo-3691279.jpeg?auto=compress&cs=tinysrgb&fit=crop&h=1200&w=800",
                "landscape": "https://images.pexels.com/photos/3691279/pexels-photo-3691279.jpeg?auto=compress&cs=tinysrgb&fit=crop&h=627&w=1200",
                "tiny": "https://images.pexels.com/photos/3691279/pexels-photo-3691279.jpeg?auto=compress&cs=tinysrgb&dpr=1&fit=crop&h=200&w=280"
            },
            "liked": false,
            "alt": "Black Elephant on Sand Behind Trees"
        },
        {
            "id": 3691288,
            "width": 3888,
            "height": 5184,
            "url": "https://www.pexels.com/photo/two-asian-elephants-with-baby-elephant-standing-under-the-tree-3691288/",
            "photographer": "Katie Hollamby",
            "photographer_url": "https://www.pexels.com/@qwertypr",
            "photographer_id": 1908980,
            "avg_color": "#9B906E",
            "src": {
                "original": "https://images.pexels.com/photos/3691288/pexels-photo-3691288.jpeg",
                "large2x": "https://images.pexels.com/photos/3691288/pexels-photo-3691288.jpeg?auto=compress&cs=tinysrgb&dpr=2&h=650&w=940",
                "large": "https://images.pexels.com/photos/3691288/pexels-photo-3691288.jpeg?auto=compress&cs=tinysrgb&h=650&w=940",
                "medium": "https://images.pexels.com/photos/3691288/pexels-photo-3691288.jpeg?auto=compress&cs=tinysrgb&h=350",
                "small": "https://images.pexels.com/photos/3691288/pexels-photo-3691288.jpeg?auto=compress&cs=tinysrgb&h=130",
                "portrait": "https://images.pexels.com/photos/3691288/pexels-photo-3691288.jpeg?auto=compress&cs=tinysrgb&fit=crop&h=1200&w=800",
                "landscape": "https://images.pexels.com/photos/3691288/pexels-photo-3691288.jpeg?auto=compress&cs=tinysrgb&fit=crop&h=627&w=1200",
                "tiny": "https://images.pexels.com/photos/3691288/pexels-photo-3691288.jpeg?auto=compress&cs=tinysrgb&dpr=1&fit=crop&h=200&w=280"
            },
            "liked": false,
            "alt": "Two Asian Elephants with Baby Elephant Standing Under the Tree"
        },
        {
            "id": 3691813,
            "width": 5184,
            "height": 3888,
            "url": "https://www.pexels.com/photo/photo-of-baby-elephant-sleeping-on-the-ground-3691813/",
            "photographer": "Katie Hollamby",
            "photographer_url": "https://www.pexels.com/@qwertypr",
            "photographer_id": 1908980,
            "avg_color": "#554B2D",
            "src": {
                "original": "https://images.pexels.com/photos/3691813/pexels-photo-3691813.jpeg",
                "large2x": "https://images.pexels.com/photos/3691813/pexels-photo-3691813.jpeg?auto=compress&cs=tinysrgb&dpr=2&h=650&w=940",
                "large": "https://images.pexels.com/photos/3691813/pexels-photo-3691813.jpeg?auto=compress&cs=tinysrgb&h=650&w=940",
                "medium": "https://images.pexels.com/photos/3691813/pexels-photo-3691813.jpeg?auto=compress&cs=tinysrgb&h=350",
                "small": "https://images.pexels.com/photos/3691813/pexels-photo-3691813.jpeg?auto=compress&cs=tinysrgb&h=130",
                "portrait": "https://images.pexels.com/photos/3691813/pexels-photo-3691813.jpeg?auto=compress&cs=tinysrgb&fit=crop&h=1200&w=800",
                "landscape": "https://images.pexels.com/photos/3691813/pexels-photo-3691813.jpeg?auto=compress&cs=tinysrgb&fit=crop&h=627&w=1200",
                "tiny": "https://images.pexels.com/photos/3691813/pexels-photo-3691813.jpeg?auto=compress&cs=tinysrgb&dpr=1&fit=crop&h=200&w=280"
            },
            "liked": false,
            "alt": "Photo of Baby Elephant Sleeping on the Ground"
        },
        {
            "id": 6498744,
            "width": 4730,
            "height": 3052,
            "url": "https://www.pexels.com/photo/elephant-walking-on-grass-field-in-grayscale-photography-6498744/",
            "photographer": "Wolfgang Schlaifer",
            "photographer_url": "https://www.pexels.com/@woici",
            "photographer_id": 3575291,
            "avg_color": "#3A3A3A",
            "src": {
                "original": "https://images.pexels.com/photos/6498744/pexels-photo-6498744.jpeg",
                "large2x": "https://images.pexels.com/photos/6498744/pexels-photo-6498744.jpeg?auto=compress&cs=tinysrgb&dpr=2&h=650&w=940",
                "large": "https://images.pexels.com/photos/6498744/pexels-photo-6498744.jpeg?auto=compress&cs=tinysrgb&h=650&w=940",
                "medium": "https://images.pexels.com/photos/6498744/pexels-photo-6498744.jpeg?auto=compress&cs=tinysrgb&h=350",
                "small": "https://images.pexels.com/photos/6498744/pexels-photo-6498744.jpeg?auto=compress&cs=tinysrgb&h=130",
                "portrait": "https://images.pexels.com/photos/6498744/pexels-photo-6498744.jpeg?auto=compress&cs=tinysrgb&fit=crop&h=1200&w=800",
                "landscape": "https://images.pexels.com/photos/6498744/pexels-photo-6498744.jpeg?auto=compress&cs=tinysrgb&fit=crop&h=627&w=1200",
                "tiny": "https://images.pexels.com/photos/6498744/pexels-photo-6498744.jpeg?auto=compress&cs=tinysrgb&dpr=1&fit=crop&h=200&w=280"
            },
            "liked": false,
            "alt": "Elephant Walking on Grass Field in Grayscale Photography"
        },
        {
            "id": 6551922,
            "width": 2832,
            "height": 4240,
            "url": "https://www.pexels.com/photo/brown-elephant-standing-near-body-of-water-6551922/",
            "photographer": "Taryn Elliott",
            "photographer_url": "https://www.pexels.com/@taryn-elliott",
            "photographer_id": 1522664,
            "avg_color": "#A49B8E",
            "src": {
                "original": "https://images.pexels.com/photos/6551922/pexels-photo-6551922.jpeg",
                "large2x": "https://images.pexels.com/photos/6551922/pexels-photo-6551922.jpeg?auto=compress&cs=tinysrgb&dpr=2&h=650&w=940",
                "large": "https://images.pexels.com/photos/6551922/pexels-photo-6551922.jpeg?auto=compress&cs=tinysrgb&h=650&w=940",
                "medium": "https://images.pexels.com/photos/6551922/pexels-photo-6551922.jpeg?auto=compress&cs=tinysrgb&h=350",
                "small": "https://images.pexels.com/photos/6551922/pexels-photo-6551922.jpeg?auto=compress&cs=tinysrgb&h=130",
                "portrait": "https://images.pexels.com/photos/6551922/pexels-photo-6551922.jpeg?auto=compress&cs=tinysrgb&fit=crop&h=1200&w=800",
                "landscape": "https://images.pexels.com/photos/6551922/pexels-photo-6551922.jpeg?auto=compress&cs=tinysrgb&fit=crop&h=627&w=1200",
                "tiny": "https://images.pexels.com/photos/6551922/pexels-photo-6551922.jpeg?auto=compress&cs=tinysrgb&dpr=1&fit=crop&h=200&w=280"
            },
            "liked": false,
            "alt": "Brown Elephant Standing Near Body of Water"
        }
    ],
    "total_results": 2079,
    "next_page": "https://api.pexels.com/v1/search/?page=2&per_page=15&query=Elephant"
}